// Jest Snapshot v1, https://goo.gl/fbAQLP

exports[`mutations #addContact 1`] = `
Store {
  "_actionSubscribers": Array [],
  "_actions": Object {
    "addContact": Array [
      [Function],
    ],
    "updateContact": Array [
      [Function],
    ],
  },
  "_committing": false,
  "_modules": ModuleCollection {
    "root": Module {
      "_children": Object {},
      "_rawModule": Object {
        "actions": Object {
          "addContact": [Function],
          "updateContact": [Function],
        },
        "getters": Object {
          "contacts": [Function],
        },
        "mutations": Object {
          "addContact": [Function],
          "updateContact": [Function],
        },
        "plugins": Array [
          [Function],
        ],
        "state": Object {
          "contacts": n {
            "$collection": Array [
              Object {
                "name": "Edu",
              },
            ],
            "$options": Object {
              "convertStringToObject": false,
              "entryFactory": [Function],
              "primaryKey": "id",
              "schema": Object {
                "id": [Function],
              },
              "setPrimaryKey": false,
              "validate": false,
            },
          },
        },
      },
      "context": Object {
        "commit": [Function],
        "dispatch": [Function],
      },
      "runtime": false,
      "state": Object {
        "contacts": n {
          "$collection": Array [
            Object {
              "name": "Edu",
            },
          ],
          "$options": Object {
            "convertStringToObject": false,
            "entryFactory": [Function],
            "primaryKey": "id",
            "schema": Object {
              "id": [Function],
            },
            "setPrimaryKey": false,
            "validate": false,
          },
        },
      },
    },
  },
  "_modulesNamespaceMap": Object {},
  "_mutations": Object {
    "addContact": Array [
      [Function],
    ],
    "updateContact": Array [
      [Function],
    ],
  },
  "_subscribers": Array [],
  "_vm": Vue {
    "$attrs": Object {},
    "$children": Array [],
    "$createElement": [Function],
    "$listeners": Object {},
    "$options": Object {
      "_base": [Function],
      "beforeCreate": Array [
        [Function],
      ],
      "components": Object {},
      "computed": Object {
        "contacts": [Function],
      },
      "data": [Function],
      "directives": Object {},
      "filters": Object {},
    },
    "$parent": undefined,
    "$refs": Object {},
    "$root": [Circular],
    "$scopedSlots": Object {},
    "$slots": Object {},
    "$vnode": undefined,
    "_c": [Function],
    "_computedWatchers": Object {
      "contacts": Watcher {
        "active": true,
        "cb": [Function],
        "deep": false,
        "depIds": Set {},
        "deps": Array [],
        "dirty": true,
        "expression": "function () { return fn(store); }",
        "getter": [Function],
        "id": 1,
        "lazy": true,
        "newDepIds": Set {},
        "newDeps": Array [],
        "sync": false,
        "user": false,
        "value": undefined,
        "vm": [Circular],
      },
    },
    "_data": Object {
      "$$state": Object {
        "contacts": n {
          "$collection": Array [
            Object {
              "name": "Edu",
            },
          ],
          "$options": Object {
            "convertStringToObject": false,
            "entryFactory": [Function],
            "primaryKey": "id",
            "schema": Object {
              "id": [Function],
            },
            "setPrimaryKey": false,
            "validate": false,
          },
        },
      },
    },
    "_directInactive": false,
    "_events": Object {},
    "_hasHookEvent": false,
    "_inactive": null,
    "_isBeingDestroyed": false,
    "_isDestroyed": false,
    "_isMounted": false,
    "_isVue": true,
    "_renderProxy": Vue {
      "$attrs": Object {},
      "$children": Array [],
      "$createElement": [Function],
      "$listeners": Object {},
      "$options": Object {
        "_base": [Function],
        "beforeCreate": Array [
          [Function],
        ],
        "components": Object {},
        "computed": Object {
          "contacts": [Function],
        },
        "data": [Function],
        "directives": Object {},
        "filters": Object {},
      },
      "$parent": undefined,
      "$refs": Object {},
      "$root": [Circular],
      "$scopedSlots": Object {},
      "$slots": Object {},
      "$vnode": undefined,
      "_c": [Function],
      "_computedWatchers": Object {
        "contacts": Watcher {
          "active": true,
          "cb": [Function],
          "deep": false,
          "depIds": Set {},
          "deps": Array [],
          "dirty": true,
          "expression": "function () { return fn(store); }",
          "getter": [Function],
          "id": 1,
          "lazy": true,
          "newDepIds": Set {},
          "newDeps": Array [],
          "sync": false,
          "user": false,
          "value": undefined,
          "vm": [Circular],
        },
      },
      "_data": Object {
        "$$state": Object {
          "contacts": n {
            "$collection": Array [
              Object {
                "name": "Edu",
              },
            ],
            "$options": Object {
              "convertStringToObject": false,
              "entryFactory": [Function],
              "primaryKey": "id",
              "schema": Object {
                "id": [Function],
              },
              "setPrimaryKey": false,
              "validate": false,
            },
          },
        },
      },
      "_directInactive": false,
      "_events": Object {},
      "_hasHookEvent": false,
      "_inactive": null,
      "_isBeingDestroyed": false,
      "_isDestroyed": false,
      "_isMounted": false,
      "_isVue": true,
      "_renderProxy": [Circular],
      "_self": [Circular],
      "_staticTrees": null,
      "_uid": 1,
      "_vnode": null,
      "_watcher": null,
      "_watchers": Array [
        Watcher {
          "active": true,
          "cb": [Function],
          "deep": false,
          "depIds": Set {},
          "deps": Array [],
          "dirty": true,
          "expression": "function () { return fn(store); }",
          "getter": [Function],
          "id": 1,
          "lazy": true,
          "newDepIds": Set {},
          "newDeps": Array [],
          "sync": false,
          "user": false,
          "value": undefined,
          "vm": [Circular],
        },
      ],
      "contacts": n {
        "$collection": Array [
          Object {
            "name": "Edu",
          },
        ],
        "$options": Object {
          "convertStringToObject": false,
          "entryFactory": [Function],
          "primaryKey": "id",
          "schema": Object {
            "id": [Function],
          },
          "setPrimaryKey": false,
          "validate": false,
        },
      },
    },
    "_self": [Circular],
    "_staticTrees": null,
    "_uid": 1,
    "_vnode": null,
    "_watcher": null,
    "_watchers": Array [
      Watcher {
        "active": true,
        "cb": [Function],
        "deep": false,
        "depIds": Set {
          6,
          7,
          8,
          9,
        },
        "deps": Array [
          Dep {
            "id": 6,
            "subs": Array [
              [Circular],
            ],
          },
          Dep {
            "id": 7,
            "subs": Array [
              [Circular],
            ],
          },
          Dep {
            "id": 8,
            "subs": Array [
              [Circular],
            ],
          },
          Dep {
            "id": 9,
            "subs": Array [
              [Circular],
            ],
          },
        ],
        "dirty": false,
        "expression": "function () { return fn(store); }",
        "getter": [Function],
        "id": 1,
        "lazy": true,
        "newDepIds": Set {},
        "newDeps": Array [],
        "sync": false,
        "user": false,
        "value": n {
          "$collection": Array [
            Object {
              "name": "Edu",
            },
          ],
          "$options": Object {
            "convertStringToObject": false,
            "entryFactory": [Function],
            "primaryKey": "id",
            "schema": Object {
              "id": [Function],
            },
            "setPrimaryKey": false,
            "validate": false,
          },
        },
        "vm": [Circular],
      },
    ],
    "contacts": n {
      "$collection": Array [
        Object {
          "name": "Edu",
        },
      ],
      "$options": Object {
        "convertStringToObject": false,
        "entryFactory": [Function],
        "primaryKey": "id",
        "schema": Object {
          "id": [Function],
        },
        "setPrimaryKey": false,
        "validate": false,
      },
    },
  },
  "_watcherVM": Vue {
    "$attrs": Object {},
    "$children": Array [],
    "$createElement": [Function],
    "$listeners": Object {},
    "$options": Object {
      "_base": [Function],
      "beforeCreate": Array [
        [Function],
      ],
      "components": Object {},
      "directives": Object {},
      "filters": Object {},
    },
    "$parent": undefined,
    "$refs": Object {},
    "$root": [Circular],
    "$scopedSlots": Object {},
    "$slots": Object {},
    "$vnode": undefined,
    "_c": [Function],
    "_data": Object {},
    "_directInactive": false,
    "_events": Object {},
    "_hasHookEvent": false,
    "_inactive": null,
    "_isBeingDestroyed": false,
    "_isDestroyed": false,
    "_isMounted": false,
    "_isVue": true,
    "_renderProxy": Vue {
      "$attrs": Object {},
      "$children": Array [],
      "$createElement": [Function],
      "$listeners": Object {},
      "$options": Object {
        "_base": [Function],
        "beforeCreate": Array [
          [Function],
        ],
        "components": Object {},
        "directives": Object {},
        "filters": Object {},
      },
      "$parent": undefined,
      "$refs": Object {},
      "$root": [Circular],
      "$scopedSlots": Object {},
      "$slots": Object {},
      "$vnode": undefined,
      "_c": [Function],
      "_data": Object {},
      "_directInactive": false,
      "_events": Object {},
      "_hasHookEvent": false,
      "_inactive": null,
      "_isBeingDestroyed": false,
      "_isDestroyed": false,
      "_isMounted": false,
      "_isVue": true,
      "_renderProxy": [Circular],
      "_self": [Circular],
      "_staticTrees": null,
      "_uid": 0,
      "_vnode": null,
      "_watcher": null,
      "_watchers": Array [],
    },
    "_self": [Circular],
    "_staticTrees": null,
    "_uid": 0,
    "_vnode": null,
    "_watcher": null,
    "_watchers": Array [],
  },
  "_wrappedGetters": Object {
    "contacts": [Function],
  },
  "commit": [Function],
  "dispatch": [Function],
  "getters": Object {
    "contacts": n {
      "$collection": Array [
        Object {
          "name": "Edu",
        },
      ],
      "$options": Object {
        "convertStringToObject": false,
        "entryFactory": [Function],
        "primaryKey": "id",
        "schema": Object {
          "id": [Function],
        },
        "setPrimaryKey": false,
        "validate": false,
      },
    },
  },
  "strict": false,
}
`;
